<?xml version="1.0" encoding="UTF-8"?>
<session version="1.0">
<refactoring accessors="true" comment="Delete element from project &apos;vertxInitial&apos;&#x0A;- Original project: &apos;vertxInitial&apos;&#x0A;- Original element: &apos;us.dad.vertxInitial.App.java&apos;" description="Delete element" element1="/src\/main\/java&lt;us.dad.vertxInitial{App.java" elements="1" flags="589830" id="org.eclipse.jdt.ui.delete" resources="0" stamp="1456245734759" subPackages="false" version="1.0"/>
</session>